info face="Cheri Liney" size=-100 bold=0 italic=0 charset="" unicode=1 stretchH=100 smooth=1 aa=1 padding=0,0,0,0 spacing=1,1 outline=0
common lineHeight=129 base=92 scaleW=1024 scaleH=1024 pages=1 packed=0 alphaChnl=1 redChnl=0 greenChnl=0 blueChnl=0
page id=0 file="balloons_font_0.tga"
chars count=95
char id=32   x=1012  y=0     width=1     height=129   xoffset=0     yoffset=0     xadvance=30    page=0  chnl=15
char id=33   x=188   y=650   width=39    height=129   xoffset=3     yoffset=0     xadvance=34    page=0  chnl=15
char id=34   x=684   y=520   width=46    height=129   xoffset=11    yoffset=0     xadvance=57    page=0  chnl=15
char id=35   x=53    y=520   width=52    height=129   xoffset=11    yoffset=0     xadvance=63    page=0  chnl=15
char id=36   x=47    y=650   width=46    height=129   xoffset=11    yoffset=0     xadvance=57    page=0  chnl=15
char id=37   x=106   y=520   width=52    height=129   xoffset=11    yoffset=0     xadvance=63    page=0  chnl=15
char id=38   x=966   y=520   width=46    height=129   xoffset=11    yoffset=0     xadvance=57    page=0  chnl=15
char id=39   x=228   y=650   width=39    height=129   xoffset=3     yoffset=0     xadvance=32    page=0  chnl=15
char id=40   x=159   y=520   width=52    height=129   xoffset=11    yoffset=0     xadvance=63    page=0  chnl=15
char id=41   x=872   y=520   width=46    height=129   xoffset=11    yoffset=0     xadvance=57    page=0  chnl=15
char id=42   x=212   y=520   width=52    height=129   xoffset=11    yoffset=0     xadvance=63    page=0  chnl=15
char id=43   x=825   y=520   width=46    height=129   xoffset=11    yoffset=0     xadvance=57    page=0  chnl=15
char id=44   x=426   y=650   width=38    height=129   xoffset=4     yoffset=0     xadvance=34    page=0  chnl=15
char id=45   x=387   y=650   width=38    height=129   xoffset=2     yoffset=0     xadvance=32    page=0  chnl=15
char id=46   x=348   y=650   width=38    height=129   xoffset=4     yoffset=0     xadvance=34    page=0  chnl=15
char id=47   x=371   y=520   width=52    height=129   xoffset=11    yoffset=0     xadvance=63    page=0  chnl=15
char id=48   x=946   y=130   width=65    height=129   xoffset=3     yoffset=0     xadvance=59    page=0  chnl=15
char id=49   x=499   y=650   width=33    height=129   xoffset=4     yoffset=0     xadvance=30    page=0  chnl=15
char id=50   x=125   y=390   width=61    height=129   xoffset=4     yoffset=0     xadvance=57    page=0  chnl=15
char id=51   x=493   y=390   width=60    height=129   xoffset=-3    yoffset=0     xadvance=50    page=0  chnl=15
char id=52   x=477   y=520   width=52    height=129   xoffset=2     yoffset=0     xadvance=51    page=0  chnl=15
char id=53   x=652   y=260   width=63    height=129   xoffset=-6    yoffset=0     xadvance=48    page=0  chnl=15
char id=54   x=63    y=390   width=61    height=129   xoffset=3     yoffset=0     xadvance=54    page=0  chnl=15
char id=55   x=737   y=390   width=60    height=129   xoffset=4     yoffset=0     xadvance=57    page=0  chnl=15
char id=56   x=587   y=260   width=64    height=129   xoffset=5     yoffset=0     xadvance=58    page=0  chnl=15
char id=57   x=798   y=390   width=60    height=129   xoffset=4     yoffset=0     xadvance=54    page=0  chnl=15
char id=58   x=308   y=650   width=39    height=129   xoffset=4     yoffset=0     xadvance=34    page=0  chnl=15
char id=59   x=268   y=650   width=39    height=129   xoffset=4     yoffset=0     xadvance=34    page=0  chnl=15
char id=60   x=778   y=520   width=46    height=129   xoffset=11    yoffset=0     xadvance=57    page=0  chnl=15
char id=61   x=424   y=520   width=52    height=129   xoffset=11    yoffset=0     xadvance=63    page=0  chnl=15
char id=62   x=0     y=650   width=46    height=129   xoffset=11    yoffset=0     xadvance=57    page=0  chnl=15
char id=63   x=132   y=260   width=64    height=129   xoffset=2     yoffset=0     xadvance=57    page=0  chnl=15
char id=64   x=554   y=390   width=60    height=129   xoffset=4     yoffset=0     xadvance=102   page=0  chnl=15
char id=65   x=480   y=130   width=66    height=129   xoffset=-2    yoffset=0     xadvance=48    page=0  chnl=15
char id=66   x=676   y=390   width=60    height=129   xoffset=4     yoffset=0     xadvance=51    page=0  chnl=15
char id=67   x=942   y=0     width=69    height=129   xoffset=0     yoffset=0     xadvance=55    page=0  chnl=15
char id=68   x=249   y=390   width=60    height=129   xoffset=4     yoffset=0     xadvance=53    page=0  chnl=15
char id=69   x=0     y=390   width=62    height=129   xoffset=2     yoffset=0     xadvance=55    page=0  chnl=15
char id=70   x=583   y=520   width=50    height=129   xoffset=4     yoffset=0     xadvance=47    page=0  chnl=15
char id=71   x=859   y=390   width=60    height=129   xoffset=3     yoffset=0     xadvance=50    page=0  chnl=15
char id=72   x=197   y=260   width=64    height=129   xoffset=0     yoffset=0     xadvance=57    page=0  chnl=15
char id=73   x=533   y=650   width=33    height=129   xoffset=4     yoffset=0     xadvance=30    page=0  chnl=15
char id=74   x=371   y=390   width=60    height=129   xoffset=4     yoffset=0     xadvance=54    page=0  chnl=15
char id=75   x=0     y=130   width=69    height=129   xoffset=4     yoffset=0     xadvance=60    page=0  chnl=15
char id=76   x=634   y=520   width=49    height=129   xoffset=2     yoffset=0     xadvance=43    page=0  chnl=15
char id=77   x=0     y=0     width=101   height=129   xoffset=4     yoffset=0     xadvance=97    page=0  chnl=15
char id=78   x=730   y=0     width=70    height=129   xoffset=4     yoffset=0     xadvance=67    page=0  chnl=15
char id=79   x=547   y=130   width=66    height=129   xoffset=3     yoffset=0     xadvance=59    page=0  chnl=15
char id=80   x=327   y=260   width=64    height=129   xoffset=4     yoffset=0     xadvance=59    page=0  chnl=15
char id=81   x=650   y=0     width=79    height=129   xoffset=4     yoffset=0     xadvance=59    page=0  chnl=15
char id=82   x=880   y=130   width=65    height=129   xoffset=2     yoffset=0     xadvance=53    page=0  chnl=15
char id=83   x=392   y=260   width=64    height=129   xoffset=-6    yoffset=0     xadvance=50    page=0  chnl=15
char id=84   x=843   y=260   width=62    height=129   xoffset=1     yoffset=0     xadvance=53    page=0  chnl=15
char id=85   x=814   y=130   width=65    height=129   xoffset=1     yoffset=0     xadvance=58    page=0  chnl=15
char id=86   x=906   y=260   width=62    height=129   xoffset=2     yoffset=0     xadvance=54    page=0  chnl=15
char id=87   x=204   y=0     width=97    height=129   xoffset=0     yoffset=0     xadvance=84    page=0  chnl=15
char id=88   x=568   y=0     width=81    height=129   xoffset=4     yoffset=0     xadvance=70    page=0  chnl=15
char id=89   x=748   y=130   width=65    height=129   xoffset=-1    yoffset=0     xadvance=54    page=0  chnl=15
char id=90   x=614   y=130   width=66    height=129   xoffset=2     yoffset=0     xadvance=58    page=0  chnl=15
char id=91   x=530   y=520   width=52    height=129   xoffset=11    yoffset=0     xadvance=63    page=0  chnl=15
char id=92   x=919   y=520   width=46    height=129   xoffset=11    yoffset=0     xadvance=57    page=0  chnl=15
char id=93   x=265   y=520   width=52    height=129   xoffset=11    yoffset=0     xadvance=63    page=0  chnl=15
char id=94   x=731   y=520   width=46    height=129   xoffset=11    yoffset=0     xadvance=57    page=0  chnl=15
char id=95   x=318   y=520   width=52    height=129   xoffset=11    yoffset=0     xadvance=63    page=0  chnl=15
char id=96   x=432   y=390   width=60    height=129   xoffset=34    yoffset=0     xadvance=102   page=0  chnl=15
char id=97   x=277   y=130   width=67    height=129   xoffset=-3    yoffset=0     xadvance=54    page=0  chnl=15
char id=98   x=310   y=390   width=60    height=129   xoffset=3     yoffset=0     xadvance=52    page=0  chnl=15
char id=99   x=872   y=0     width=69    height=129   xoffset=0     yoffset=0     xadvance=55    page=0  chnl=15
char id=100  x=457   y=260   width=64    height=129   xoffset=0     yoffset=0     xadvance=56    page=0  chnl=15
char id=101  x=209   y=130   width=67    height=129   xoffset=-1    yoffset=0     xadvance=54    page=0  chnl=15
char id=102  x=920   y=390   width=57    height=129   xoffset=2     yoffset=0     xadvance=48    page=0  chnl=15
char id=103  x=187   y=390   width=61    height=129   xoffset=0     yoffset=0     xadvance=50    page=0  chnl=15
char id=104  x=262   y=260   width=64    height=129   xoffset=7     yoffset=0     xadvance=57    page=0  chnl=15
char id=105  x=978   y=390   width=41    height=129   xoffset=2     yoffset=0     xadvance=34    page=0  chnl=15
char id=106  x=716   y=260   width=63    height=129   xoffset=2     yoffset=0     xadvance=56    page=0  chnl=15
char id=107  x=70    y=130   width=69    height=129   xoffset=4     yoffset=0     xadvance=60    page=0  chnl=15
char id=108  x=465   y=650   width=33    height=129   xoffset=4     yoffset=0     xadvance=30    page=0  chnl=15
char id=109  x=102   y=0     width=101   height=129   xoffset=11    yoffset=0     xadvance=97    page=0  chnl=15
char id=110  x=801   y=0     width=70    height=129   xoffset=11    yoffset=0     xadvance=67    page=0  chnl=15
char id=111  x=66    y=260   width=65    height=129   xoffset=3     yoffset=0     xadvance=59    page=0  chnl=15
char id=112  x=0     y=260   width=65    height=129   xoffset=2     yoffset=0     xadvance=59    page=0  chnl=15
char id=113  x=399   y=0     width=85    height=129   xoffset=2     yoffset=0     xadvance=59    page=0  chnl=15
char id=114  x=681   y=130   width=66    height=129   xoffset=4     yoffset=0     xadvance=57    page=0  chnl=15
char id=115  x=413   y=130   width=66    height=129   xoffset=3     yoffset=0     xadvance=50    page=0  chnl=15
char id=116  x=615   y=390   width=60    height=129   xoffset=4     yoffset=0     xadvance=54    page=0  chnl=15
char id=117  x=345   y=130   width=67    height=129   xoffset=1     yoffset=0     xadvance=58    page=0  chnl=15
char id=118  x=780   y=260   width=62    height=129   xoffset=4     yoffset=0     xadvance=54    page=0  chnl=15
char id=119  x=302   y=0     width=96    height=129   xoffset=2     yoffset=0     xadvance=84    page=0  chnl=15
char id=120  x=485   y=0     width=82    height=129   xoffset=4     yoffset=0     xadvance=70    page=0  chnl=15
char id=121  x=522   y=260   width=64    height=129   xoffset=2     yoffset=0     xadvance=54    page=0  chnl=15
char id=122  x=140   y=130   width=68    height=129   xoffset=2     yoffset=0     xadvance=58    page=0  chnl=15
char id=123  x=94    y=650   width=46    height=129   xoffset=11    yoffset=0     xadvance=57    page=0  chnl=15
char id=124  x=969   y=260   width=52    height=129   xoffset=11    yoffset=0     xadvance=63    page=0  chnl=15
char id=125  x=141   y=650   width=46    height=129   xoffset=11    yoffset=0     xadvance=57    page=0  chnl=15
char id=126  x=0     y=520   width=52    height=129   xoffset=11    yoffset=0     xadvance=63    page=0  chnl=15
